{
    "table": [
        "input1_txt_content",
        "input2_txt_content",
        "image1_filemanager_content",
        "image2_filemanager_content",
        "content1_editor_content",
        "content2_editor_content",
        "product_id_content",
        "slider_slider_content"
    ]
}