{
    "page": [
        {
            "slider": "slidermain_slider_content",
            "field": [
                "secondary_filemanager_content",
                "pretitle_editor_content",
                "title_editor_content",
                "subtitle_editor_content"
            ]
        },
        {
            "slider": "slider_slider_content",
            "field": [
                "cta_txt_content",
                "link_txt_content"
            ]
        }        
    ]
}